{
  "name": "CSV Logout",
  "identifier": "csvlogout",
  "description": {
    "es-ES": "Este modulo te permite cerrar las secciones abiertas con nuestros plugins de csv",
    "en-US": "Whith this plugin you could close the section of the csv plugins"
  },
  "documentation": {
    "es-ES": "modules/csvlogout/es_ES.md",
    "en-US": "modules/csvlogout/en_US.md"
  },
  "descriptionShort": {
    "es-ES": "Crea tu propio código HTML. ¡Ahora con editor wysiwyg!",
    "en-US": "Crea tu propio código HTML. ¡Ahora con editor wysiwyg!"
  },
  "icon": "code",
  "type": "A",
  "version": "0.0.1",
  "author": "King of App",
  "category": [
    "others"
  ],
  "price": 0,
  "subscription": false,
  "canContain": true,
  "platforms": [
    "android",
    "ios",
    "windows"
  ],
  "view": "modules/csvlogout/index.html",
  "files": [
    "modules/csvlogout/controller.js",
    "modules/csvlogout/style.html"
  ],
  "scope": {
    "field":"aa"
  },
  "config": [],
  "libs": [],
  "showOn": {
    "menu": true,
    "market": true,
    "dragDrop": true
  },
  "images": {
    "list": "modules/csvlogout/images/list.png",
    "screenshots": [
      "modules/csvlogout/images/screenshot01.png",
      "modules/csvlogout/images/screenshot02.png"
    ],
    "popover": "modules/csvlogout/images/popover.png",
    "banner": "modules/csvlogout/images/banner.png",
    "logo": "modules/csvlogout/images/logo.png"
  }
}